<?xml version="1.0" encoding="UTF-8" standalone="no"?>
<graphml xmlns="http://graphml.graphdrawing.org/xmlns" xmlns:xsi="http://www.w3.org/2001/XMLSchema-instance" xmlns:y="http://www.yworks.com/xml/graphml" xmlns:yed="http://www.yworks.com/xml/yed/3" xsi:schemaLocation="http://graphml.graphdrawing.org/xmlns http://www.yworks.com/xml/schema/graphml/1.1/ygraphml.xsd">
  <!--Created by yFiles for Java 2.8-->
  <key for="graphml" id="d0" yfiles.type="resources"/>
  <key for="port" id="d1" yfiles.type="portgraphics"/>
  <key for="port" id="d2" yfiles.type="portgeometry"/>
  <key for="port" id="d3" yfiles.type="portuserdata"/>
  <key attr.name="url" attr.type="string" for="node" id="d4"/>
  <key attr.name="description" attr.type="string" for="node" id="d5"/>
  <key for="node" id="d6" yfiles.type="nodegraphics"/>
  <key attr.name="Beschreibung" attr.type="string" for="graph" id="d7"/>
  <key attr.name="url" attr.type="string" for="edge" id="d8"/>
  <key attr.name="description" attr.type="string" for="edge" id="d9"/>
  <key for="edge" id="d10" yfiles.type="edgegraphics"/>
  <graph edgedefault="directed" id="G">
    <data key="d7"/>
    <node id="n0">
      <data key="d6">
        <y:GenericNode configuration="EntityRelationship_Entity">
          <y:Geometry height="40.0" width="150.0" x="490.0" y="0.0"/>
          <y:Fill color="#CCFFCC" color2="#00FF00" transparent="false"/>
          <y:BorderStyle color="#000000" type="line" width="1.0"/>
          <y:NodeLabel alignment="center" autoSizePolicy="content" fontFamily="Dialog" fontSize="12" fontStyle="plain" hasBackgroundColor="false" hasLineColor="false" height="18.701171875" modelName="internal" modelPosition="c" textColor="#000000" visible="true" width="60.021484375" x="44.9892578125" y="10.6494140625">Wahlzettel</y:NodeLabel>
          <y:StyleProperties>
            <y:Property class="java.lang.Boolean" name="shadow" value="true"/>
          </y:StyleProperties>
        </y:GenericNode>
      </data>
    </node>
    <node id="n1">
      <data key="d6">
        <y:GenericNode configuration="EntityRelationship_Entity">
          <y:Geometry height="40.0" width="150.0" x="15.0" y="181.25"/>
          <y:Fill color="#FFFF99" color2="#FFFF00" transparent="false"/>
          <y:BorderStyle color="#000000" type="line" width="1.0"/>
          <y:NodeLabel alignment="center" autoSizePolicy="content" fontFamily="Dialog" fontSize="12" fontStyle="plain" hasBackgroundColor="false" hasLineColor="false" height="18.701171875" modelName="internal" modelPosition="c" textColor="#000000" visible="true" width="78.009765625" x="35.9951171875" y="10.6494140625">Zweitstimmen</y:NodeLabel>
          <y:StyleProperties>
            <y:Property class="java.lang.Boolean" name="shadow" value="true"/>
          </y:StyleProperties>
        </y:GenericNode>
      </data>
    </node>
    <node id="n2">
      <data key="d6">
        <y:GenericNode configuration="EntityRelationship_Entity">
          <y:Geometry height="40.0" width="150.0" x="775.0" y="181.25"/>
          <y:Fill color="#FFFF99" color2="#FFFF00" transparent="false"/>
          <y:BorderStyle color="#000000" type="line" width="1.0"/>
          <y:NodeLabel alignment="center" autoSizePolicy="content" fontFamily="Dialog" fontSize="12" fontStyle="plain" hasBackgroundColor="false" hasLineColor="false" height="18.701171875" modelName="internal" modelPosition="c" textColor="#000000" visible="true" width="109.357421875" x="20.3212890625" y="10.6494140625">ZweitstimmenPartei</y:NodeLabel>
          <y:StyleProperties>
            <y:Property class="java.lang.Boolean" name="shadow" value="true"/>
          </y:StyleProperties>
        </y:GenericNode>
      </data>
    </node>
    <node id="n3">
      <data key="d6">
        <y:GenericNode configuration="EntityRelationship_Entity">
          <y:Geometry height="40.0" width="150.0" x="490.0" y="181.25"/>
          <y:Fill color="#FFFF99" color2="#FFFF00" transparent="false"/>
          <y:BorderStyle color="#000000" type="line" width="1.0"/>
          <y:NodeLabel alignment="center" autoSizePolicy="content" fontFamily="Dialog" fontSize="12" fontStyle="plain" hasBackgroundColor="false" hasLineColor="false" height="18.701171875" modelName="internal" modelPosition="c" textColor="#000000" visible="true" width="70.673828125" x="39.6630859375" y="10.6494140625">Erststimmen</y:NodeLabel>
          <y:StyleProperties>
            <y:Property class="java.lang.Boolean" name="shadow" value="true"/>
          </y:StyleProperties>
        </y:GenericNode>
      </data>
    </node>
    <node id="n4">
      <data key="d6">
        <y:GenericNode configuration="EntityRelationship_Entity">
          <y:Geometry height="40.0" width="150.0" x="775.0" y="396.25"/>
          <y:Fill color="#E8EEF7" color2="#B7C9E3" transparent="false"/>
          <y:BorderStyle color="#000000" type="line" width="1.0"/>
          <y:NodeLabel alignment="center" autoSizePolicy="content" fontFamily="Dialog" fontSize="12" fontStyle="plain" hasBackgroundColor="false" hasLineColor="false" height="18.701171875" modelName="internal" modelPosition="c" textColor="#000000" visible="true" width="62.025390625" x="43.9873046875" y="10.6494140625">SitzePartei</y:NodeLabel>
          <y:StyleProperties>
            <y:Property class="java.lang.Boolean" name="shadow" value="true"/>
          </y:StyleProperties>
        </y:GenericNode>
      </data>
    </node>
    <node id="n5">
      <data key="d6">
        <y:GenericNode configuration="EntityRelationship_Entity">
          <y:Geometry height="40.0" width="150.0" x="395.0" y="286.25"/>
          <y:Fill color="#E8EEF7" color2="#B7C9E3" transparent="false"/>
          <y:BorderStyle color="#000000" type="line" width="1.0"/>
          <y:NodeLabel alignment="center" autoSizePolicy="content" fontFamily="Dialog" fontSize="12" fontStyle="plain" hasBackgroundColor="false" hasLineColor="false" height="18.701171875" modelName="internal" modelPosition="c" textColor="#000000" visible="true" width="75.361328125" x="37.3193359375" y="10.6494140625">Direktmandat</y:NodeLabel>
          <y:StyleProperties>
            <y:Property class="java.lang.Boolean" name="shadow" value="true"/>
          </y:StyleProperties>
        </y:GenericNode>
      </data>
    </node>
    <node id="n6">
      <data key="d6">
        <y:GenericNode configuration="EntityRelationship_Entity">
          <y:Geometry height="40.0" width="150.0" x="15.0" y="286.25"/>
          <y:Fill color="#E8EEF7" color2="#B7C9E3" transparent="false"/>
          <y:BorderStyle color="#000000" type="line" width="1.0"/>
          <y:NodeLabel alignment="center" autoSizePolicy="content" fontFamily="Dialog" fontSize="12" fontStyle="plain" hasBackgroundColor="false" hasLineColor="false" height="18.701171875" modelName="internal" modelPosition="c" textColor="#000000" visible="true" width="112.052734375" x="18.9736328125" y="10.6494140625">LandeslisteStimmen</y:NodeLabel>
          <y:StyleProperties>
            <y:Property class="java.lang.Boolean" name="shadow" value="true"/>
          </y:StyleProperties>
        </y:GenericNode>
      </data>
    </node>
    <node id="n7">
      <data key="d6">
        <y:GenericNode configuration="EntityRelationship_Entity">
          <y:Geometry height="40.0" width="150.0" x="775.0" y="286.25"/>
          <y:Fill color="#E8EEF7" color2="#B7C9E3" transparent="false"/>
          <y:BorderStyle color="#000000" type="line" width="1.0"/>
          <y:NodeLabel alignment="center" autoSizePolicy="node_width" configuration="CroppingLabel" fontFamily="Dialog" fontSize="12" fontStyle="plain" hasBackgroundColor="false" hasLineColor="false" height="36.1875" modelName="internal" modelPosition="c" textColor="#000000" visible="true" width="150.0" x="0.0" y="1.90625">ZweitstimmenPartei_Sperrklausel</y:NodeLabel>
          <y:StyleProperties>
            <y:Property class="java.lang.Boolean" name="shadow" value="true"/>
          </y:StyleProperties>
        </y:GenericNode>
      </data>
    </node>
    <node id="n8">
      <data key="d6">
        <y:GenericNode configuration="EntityRelationship_Entity">
          <y:Geometry height="40.0" width="150.0" x="15.0" y="396.25"/>
          <y:Fill color="#E8EEF7" color2="#B7C9E3" transparent="false"/>
          <y:BorderStyle color="#000000" type="line" width="1.0"/>
          <y:NodeLabel alignment="center" autoSizePolicy="content" fontFamily="Dialog" fontSize="12" fontStyle="plain" hasBackgroundColor="false" hasLineColor="false" height="18.701171875" modelName="internal" modelPosition="c" textColor="#000000" visible="true" width="91.38671875" x="29.306640625" y="10.6494140625">SitzeLandesliste</y:NodeLabel>
          <y:StyleProperties>
            <y:Property class="java.lang.Boolean" name="shadow" value="true"/>
          </y:StyleProperties>
        </y:GenericNode>
      </data>
    </node>
    <node id="n9">
      <data key="d6">
        <y:GenericNode configuration="EntityRelationship_Entity">
          <y:Geometry height="40.0" width="150.0" x="205.0" y="396.25"/>
          <y:Fill color="#E8EEF7" color2="#B7C9E3" transparent="false"/>
          <y:BorderStyle color="#000000" type="line" width="1.0"/>
          <y:NodeLabel alignment="center" autoSizePolicy="node_width" configuration="CroppingLabel" fontFamily="Dialog" fontSize="12" fontStyle="plain" hasBackgroundColor="false" hasLineColor="false" height="21.09375" modelName="internal" modelPosition="c" textColor="#000000" visible="true" width="150.0" x="0.0" y="9.453125">DirektmandateLandesliste</y:NodeLabel>
          <y:StyleProperties>
            <y:Property class="java.lang.Boolean" name="shadow" value="true"/>
          </y:StyleProperties>
        </y:GenericNode>
      </data>
    </node>
    <node id="n10">
      <data key="d6">
        <y:GenericNode configuration="EntityRelationship_Entity">
          <y:Geometry height="40.0" width="150.0" x="452.5" y="606.25"/>
          <y:Fill color="#E8EEF7" color2="#B7C9E3" transparent="false"/>
          <y:BorderStyle color="#000000" type="line" width="1.0"/>
          <y:NodeLabel alignment="center" autoSizePolicy="node_width" configuration="CroppingLabel" fontFamily="Dialog" fontSize="12" fontStyle="plain" hasBackgroundColor="false" hasLineColor="false" height="21.09375" modelName="internal" modelPosition="c" textColor="#000000" visible="true" width="150.0" x="0.0" y="9.453125">Abgeordnete</y:NodeLabel>
          <y:StyleProperties>
            <y:Property class="java.lang.Boolean" name="shadow" value="true"/>
          </y:StyleProperties>
        </y:GenericNode>
      </data>
    </node>
    <node id="n11">
      <data key="d6">
        <y:GenericNode configuration="EntityRelationship_Entity">
          <y:Geometry height="40.0" width="150.0" x="395.0" y="396.25"/>
          <y:Fill color="#E8EEF7" color2="#B7C9E3" transparent="false"/>
          <y:BorderStyle color="#000000" type="line" width="1.0"/>
          <y:NodeLabel alignment="center" autoSizePolicy="node_width" configuration="CroppingLabel" fontFamily="Dialog" fontSize="12" fontStyle="plain" hasBackgroundColor="false" hasLineColor="false" height="21.09375" modelName="internal" modelPosition="c" textColor="#000000" visible="true" width="150.0" x="0.0" y="9.453125">PossibleListenmandat</y:NodeLabel>
          <y:StyleProperties>
            <y:Property class="java.lang.Boolean" name="shadow" value="true"/>
          </y:StyleProperties>
        </y:GenericNode>
      </data>
    </node>
    <node id="n12">
      <data key="d6">
        <y:GenericNode configuration="EntityRelationship_Entity">
          <y:Geometry height="40.0" width="150.0" x="395.0" y="501.25"/>
          <y:Fill color="#E8EEF7" color2="#B7C9E3" transparent="false"/>
          <y:BorderStyle color="#000000" type="line" width="1.0"/>
          <y:NodeLabel alignment="center" autoSizePolicy="node_width" configuration="CroppingLabel" fontFamily="Dialog" fontSize="12" fontStyle="plain" hasBackgroundColor="false" hasLineColor="false" height="21.09375" modelName="internal" modelPosition="c" textColor="#000000" visible="true" width="150.0" x="0.0" y="9.453125">Listenmandat</y:NodeLabel>
          <y:StyleProperties>
            <y:Property class="java.lang.Boolean" name="shadow" value="true"/>
          </y:StyleProperties>
        </y:GenericNode>
      </data>
    </node>
    <node id="n13">
      <data key="d6">
        <y:GenericNode configuration="EntityRelationship_Entity">
          <y:Geometry height="40.0" width="150.0" x="452.5" y="676.25"/>
          <y:Fill color="#CCFFCC" color2="#00FF00" transparent="false"/>
          <y:BorderStyle color="#000000" type="line" width="1.0"/>
          <y:NodeLabel alignment="center" autoSizePolicy="content" fontFamily="Dialog" fontSize="12" fontStyle="plain" hasBackgroundColor="false" hasLineColor="false" height="18.701171875" modelName="internal" modelPosition="c" textColor="#000000" visible="true" width="76.03515625" x="36.982421875" y="10.6494140625">Sitzverteilung</y:NodeLabel>
          <y:StyleProperties>
            <y:Property class="java.lang.Boolean" name="shadow" value="true"/>
          </y:StyleProperties>
        </y:GenericNode>
      </data>
    </node>
    <node id="n14">
      <data key="d6">
        <y:GenericNode configuration="EntityRelationship_Entity">
          <y:Geometry height="40.0" width="150.0" x="167.5" y="501.25"/>
          <y:Fill color="#E8EEF7" color2="#B7C9E3" transparent="false"/>
          <y:BorderStyle color="#000000" type="line" width="1.0"/>
          <y:NodeLabel alignment="center" autoSizePolicy="content" fontFamily="Dialog" fontSize="12" fontStyle="plain" hasBackgroundColor="false" hasLineColor="false" height="18.701171875" modelName="internal" modelPosition="c" textColor="#000000" visible="true" width="130.755859375" x="9.6220703125" y="10.6494140625">AnzUeberhangmandate</y:NodeLabel>
          <y:StyleProperties>
            <y:Property class="java.lang.Boolean" name="shadow" value="true"/>
          </y:StyleProperties>
        </y:GenericNode>
      </data>
    </node>
    <node id="n15">
      <data key="d6">
        <y:GenericNode configuration="EntityRelationship_Entity">
          <y:Geometry height="40.0" width="150.0" x="167.5" y="606.25"/>
          <y:Fill color="#E8EEF7" color2="#B7C9E3" transparent="false"/>
          <y:BorderStyle color="#000000" type="line" width="1.0"/>
          <y:NodeLabel alignment="center" autoSizePolicy="content" fontFamily="Dialog" fontSize="12" fontStyle="plain" hasBackgroundColor="false" hasLineColor="false" height="18.701171875" modelName="internal" modelPosition="c" textColor="#000000" visible="true" width="141.42578125" x="4.287109375" y="10.6494140625">UeberhangmandatePartei</y:NodeLabel>
          <y:StyleProperties>
            <y:Property class="java.lang.Boolean" name="shadow" value="true"/>
          </y:StyleProperties>
        </y:GenericNode>
      </data>
    </node>
    <node id="n16">
      <data key="d6">
        <y:GenericNode configuration="EntityRelationship_Entity">
          <y:Geometry height="40.0" width="150.0" x="585.0" y="286.25"/>
          <y:Fill color="#E8EEF7" color2="#B7C9E3" transparent="false"/>
          <y:BorderStyle color="#000000" type="line" width="1.0"/>
          <y:NodeLabel alignment="center" autoSizePolicy="content" fontFamily="Dialog" fontSize="12" fontStyle="plain" hasBackgroundColor="false" hasLineColor="false" height="18.701171875" modelName="internal" modelPosition="c" textColor="#000000" visible="true" width="106.064453125" x="21.9677734375" y="10.6494140625">KnappsteGewinner</y:NodeLabel>
          <y:StyleProperties>
            <y:Property class="java.lang.Boolean" name="shadow" value="true"/>
          </y:StyleProperties>
        </y:GenericNode>
      </data>
    </node>
    <edge id="e0" source="n0" target="n3">
      <data key="d10">
        <y:PolyLineEdge>
          <y:Path sx="0.0" sy="20.0" tx="0.0" ty="-20.0"/>
          <y:LineStyle color="#000000" type="line" width="1.0"/>
          <y:Arrows source="none" target="standard"/>
          <y:EdgeLabel alignment="center" distance="2.0" fontFamily="Dialog" fontSize="12" fontStyle="plain" hasBackgroundColor="false" hasLineColor="false" hasText="false" height="4.0" modelName="six_pos" modelPosition="tail" preferredPlacement="anywhere" ratio="0.5" textColor="#000000" visible="true" width="4.0" x="2.0" y="68.625"/>
          <y:BendStyle smoothed="false"/>
        </y:PolyLineEdge>
      </data>
    </edge>
    <edge id="e1" source="n0" target="n1">
      <data key="d10">
        <y:PolyLineEdge>
          <y:Path sx="-50.0" sy="20.0" tx="0.0" ty="-20.0">
            <y:Point x="515.0" y="55.0"/>
            <y:Point x="90.0" y="161.25"/>
          </y:Path>
          <y:LineStyle color="#000000" type="line" width="1.0"/>
          <y:Arrows source="none" target="standard"/>
          <y:BendStyle smoothed="false"/>
        </y:PolyLineEdge>
      </data>
    </edge>
    <edge id="e2" source="n0" target="n2">
      <data key="d10">
        <y:PolyLineEdge>
          <y:Path sx="50.0" sy="20.0" tx="0.0" ty="-20.0">
            <y:Point x="615.0" y="55.0"/>
            <y:Point x="850.0" y="161.25"/>
          </y:Path>
          <y:LineStyle color="#000000" type="line" width="1.0"/>
          <y:Arrows source="none" target="standard"/>
          <y:BendStyle smoothed="false"/>
        </y:PolyLineEdge>
      </data>
    </edge>
    <edge id="e3" source="n3" target="n5">
      <data key="d10">
        <y:PolyLineEdge>
          <y:Path sx="-37.5" sy="20.0" tx="0.0" ty="-20.0">
            <y:Point x="527.5" y="236.25"/>
            <y:Point x="470.0" y="266.25"/>
          </y:Path>
          <y:LineStyle color="#000000" type="line" width="1.0"/>
          <y:Arrows source="none" target="standard"/>
          <y:BendStyle smoothed="false"/>
        </y:PolyLineEdge>
      </data>
    </edge>
    <edge id="e4" source="n2" target="n7">
      <data key="d10">
        <y:PolyLineEdge>
          <y:Path sx="0.0" sy="20.0" tx="0.0" ty="-20.0"/>
          <y:LineStyle color="#000000" type="line" width="1.0"/>
          <y:Arrows source="none" target="standard"/>
          <y:BendStyle smoothed="false"/>
        </y:PolyLineEdge>
      </data>
    </edge>
    <edge id="e5" source="n1" target="n6">
      <data key="d10">
        <y:PolyLineEdge>
          <y:Path sx="0.0" sy="20.0" tx="0.0" ty="-20.0"/>
          <y:LineStyle color="#000000" type="line" width="1.0"/>
          <y:Arrows source="none" target="standard"/>
          <y:BendStyle smoothed="false"/>
        </y:PolyLineEdge>
      </data>
    </edge>
    <edge id="e6" source="n7" target="n4">
      <data key="d10">
        <y:PolyLineEdge>
          <y:Path sx="0.0" sy="20.0" tx="0.0" ty="-20.0"/>
          <y:LineStyle color="#000000" type="line" width="1.0"/>
          <y:Arrows source="none" target="standard"/>
          <y:BendStyle smoothed="false"/>
        </y:PolyLineEdge>
      </data>
    </edge>
    <edge id="e7" source="n6" target="n8">
      <data key="d10">
        <y:PolyLineEdge>
          <y:Path sx="0.0" sy="20.0" tx="0.0" ty="-20.0"/>
          <y:LineStyle color="#000000" type="line" width="1.0"/>
          <y:Arrows source="none" target="standard"/>
          <y:BendStyle smoothed="false"/>
        </y:PolyLineEdge>
      </data>
    </edge>
    <edge id="e8" source="n5" target="n9">
      <data key="d10">
        <y:PolyLineEdge>
          <y:Path sx="-50.0" sy="20.0" tx="0.0" ty="-20.0">
            <y:Point x="420.0" y="341.25"/>
            <y:Point x="280.0" y="376.25"/>
          </y:Path>
          <y:LineStyle color="#000000" type="line" width="1.0"/>
          <y:Arrows source="none" target="standard"/>
          <y:BendStyle smoothed="false"/>
        </y:PolyLineEdge>
      </data>
    </edge>
    <edge id="e9" source="n5" target="n10">
      <data key="d10">
        <y:PolyLineEdge>
          <y:Path sx="50.0" sy="20.0" tx="37.5" ty="-20.0">
            <y:Point x="520.0" y="341.25"/>
            <y:Point x="565.0" y="396.25"/>
          </y:Path>
          <y:LineStyle color="#000000" type="line" width="1.0"/>
          <y:Arrows source="none" target="standard"/>
          <y:BendStyle smoothed="false"/>
        </y:PolyLineEdge>
      </data>
    </edge>
    <edge id="e10" source="n5" target="n11">
      <data key="d10">
        <y:PolyLineEdge>
          <y:Path sx="0.0" sy="20.0" tx="0.0" ty="-20.0"/>
          <y:LineStyle color="#000000" type="line" width="1.0"/>
          <y:Arrows source="none" target="standard"/>
          <y:BendStyle smoothed="false"/>
        </y:PolyLineEdge>
      </data>
    </edge>
    <edge id="e11" source="n11" target="n12">
      <data key="d10">
        <y:PolyLineEdge>
          <y:Path sx="0.0" sy="20.0" tx="0.0" ty="-20.0"/>
          <y:LineStyle color="#000000" type="line" width="1.0"/>
          <y:Arrows source="none" target="standard"/>
          <y:BendStyle smoothed="false"/>
        </y:PolyLineEdge>
      </data>
    </edge>
    <edge id="e12" source="n12" target="n10">
      <data key="d10">
        <y:PolyLineEdge>
          <y:Path sx="0.0" sy="20.0" tx="-37.5" ty="-20.0">
            <y:Point x="470.0" y="556.25"/>
            <y:Point x="490.0" y="586.25"/>
          </y:Path>
          <y:LineStyle color="#000000" type="line" width="1.0"/>
          <y:Arrows source="none" target="standard"/>
          <y:BendStyle smoothed="false"/>
        </y:PolyLineEdge>
      </data>
    </edge>
    <edge id="e13" source="n10" target="n13">
      <data key="d10">
        <y:PolyLineEdge>
          <y:Path sx="0.0" sy="20.0" tx="0.0" ty="-20.0"/>
          <y:LineStyle color="#000000" type="line" width="1.0"/>
          <y:Arrows source="none" target="standard"/>
          <y:BendStyle smoothed="false"/>
        </y:PolyLineEdge>
      </data>
    </edge>
    <edge id="e14" source="n8" target="n14">
      <data key="d10">
        <y:PolyLineEdge>
          <y:Path sx="0.0" sy="20.0" tx="-37.5" ty="-20.0">
            <y:Point x="90.0" y="451.25"/>
            <y:Point x="205.0" y="481.25"/>
          </y:Path>
          <y:LineStyle color="#000000" type="line" width="1.0"/>
          <y:Arrows source="none" target="standard"/>
          <y:BendStyle smoothed="false"/>
        </y:PolyLineEdge>
      </data>
    </edge>
    <edge id="e15" source="n9" target="n14">
      <data key="d10">
        <y:PolyLineEdge>
          <y:Path sx="0.0" sy="20.0" tx="37.5" ty="-20.0"/>
          <y:LineStyle color="#000000" type="line" width="1.0"/>
          <y:Arrows source="none" target="standard"/>
          <y:BendStyle smoothed="false"/>
        </y:PolyLineEdge>
      </data>
    </edge>
    <edge id="e16" source="n14" target="n15">
      <data key="d10">
        <y:PolyLineEdge>
          <y:Path sx="0.0" sy="20.0" tx="0.0" ty="-20.0"/>
          <y:LineStyle color="#000000" type="line" width="1.0"/>
          <y:Arrows source="none" target="standard"/>
          <y:BendStyle smoothed="false"/>
        </y:PolyLineEdge>
      </data>
    </edge>
    <edge id="e17" source="n3" target="n16">
      <data key="d10">
        <y:PolyLineEdge>
          <y:Path sx="37.5" sy="20.0" tx="0.0" ty="-20.0">
            <y:Point x="602.5" y="236.25"/>
            <y:Point x="660.0" y="266.25"/>
          </y:Path>
          <y:LineStyle color="#000000" type="line" width="1.0"/>
          <y:Arrows source="none" target="standard"/>
          <y:BendStyle smoothed="false"/>
        </y:PolyLineEdge>
      </data>
    </edge>
  </graph>
  <data key="d0">
    <y:Resources/>
  </data>
</graphml>
